<?xml version="1.0" encoding="UTF-8"?><?xml-stylesheet type="text/xsl" href="static/style.xsl"?><OAI-PMH xmlns="http://www.openarchives.org/OAI/2.0/" xmlns:xsi="http://www.w3.org/2001/XMLSchema-instance" xsi:schemaLocation="http://www.openarchives.org/OAI/2.0/ http://www.openarchives.org/OAI/2.0/OAI-PMH.xsd"><responseDate>2014-07-06T16:23:33Z</responseDate>
    <request verb="ListRecords" resumptionToken="MTozMDB8Mjp8Mzp8NDp8NTpvYWlfZGM=">http://archive.bora.wijiti.net/oai/request</request>
    <ListRecords>
        <record>
            <header>
                <identifier>oai:archive.bora.wijiti.net:10049/403</identifier>
                <datestamp>2014-03-07T09:41:14Z</datestamp>
                <setSpec>com_10049_24</setSpec>
                <setSpec>col_10049_69</setSpec>
            </header>
            <metadata><oai_dc:dc xmlns:oai_dc="http://www.openarchives.org/OAI/2.0/oai_dc/" xmlns:doc="http://www.lyncode.com/xoai" xmlns:xsi="http://www.w3.org/2001/XMLSchema-instance" xmlns:dc="http://purl.org/dc/elements/1.1/" xsi:schemaLocation="http://www.openarchives.org/OAI/2.0/oai_dc/ http://www.openarchives.org/OAI/2.0/oai_dc.xsd">
<dc:title>Profesjonsutdanninger i Bergen</dc:title>
<dc:creator>Blom, Kari</dc:creator>
<dc:creator>Hamre, Britt</dc:creator>
<dc:creator>Ertresvaag, Egil</dc:creator>
<dc:creator>Larsen, Johanne Louise</dc:creator>
<dc:contributor/>
<dc:contributor/>
<dc:contributor/>
<dc:subject>Profesjonsutdanning</dc:subject>
<dc:subject>sykepleierutdanning</dc:subject>
<dc:subject>ingeniørutdanning</dc:subject>
<dc:subject>lærerutdanning</dc:subject>
<dc:description>Boken gir en historisk oversikt over våre fire eldste profesjonsutdanninger: jordmorutdanningen, ingeniørutdanningen, sykepleierutdanningen og lærerutdanningen. I tillegg har vi en artikkel som på et mer generelt nivå drøfter det viktige og aktuelle spørsmålet om hva som kjennetegner en profesjon og dermed også en profesjonsutdanning</dc:description>
<dc:description/>
<dc:date>2014-02-18T11:42:51Z</dc:date>
<dc:date>2014-02-18T11:42:51Z</dc:date>
<dc:date>2007-03</dc:date>
<dc:type>Book</dc:type>
<dc:type>Report</dc:type>
<dc:identifier>9788277090917</dc:identifier>
<dc:identifier>http://hdl.handle.net/10049/403</dc:identifier>
<dc:language>nob</dc:language>
<dc:relation>Skriftserien nr. 1 2007 - Fagrapport - artikkelsamling</dc:relation>
<dc:publisher>Høgskolen i Bergen</dc:publisher>
</oai_dc:dc>
</metadata>
        </record>
        <record>
            <header>
                <identifier>oai:archive.bora.wijiti.net:10049/404</identifier>
                <datestamp>2014-03-06T08:35:50Z</datestamp>
                <setSpec>com_10049_24</setSpec>
                <setSpec>col_10049_69</setSpec>
            </header>
            <metadata><oai_dc:dc xmlns:oai_dc="http://www.openarchives.org/OAI/2.0/oai_dc/" xmlns:doc="http://www.lyncode.com/xoai" xmlns:xsi="http://www.w3.org/2001/XMLSchema-instance" xmlns:dc="http://purl.org/dc/elements/1.1/" xsi:schemaLocation="http://www.openarchives.org/OAI/2.0/oai_dc/ http://www.openarchives.org/OAI/2.0/oai_dc.xsd">
<dc:title>Læring for profesjonskompetanse</dc:title>
<dc:creator>Wilhelmsen, Britt Unni</dc:creator>
<dc:creator>Hole, Grete Oline</dc:creator>
<dc:creator>Hove, Synnøve</dc:creator>
<dc:creator>Jensen, Per Ivar</dc:creator>
<dc:creator>Aarstad, Jarle</dc:creator>
<dc:creator>Haugen, Gry Karin</dc:creator>
<dc:creator>Olsen, Nina Rydland</dc:creator>
<dc:creator>Sætre, Tove Pemmer</dc:creator>
<dc:creator>Waage, Jan Fredrik</dc:creator>
<dc:creator>Bland, Hanna</dc:creator>
<dc:creator>Wahlquist, Ole Henrik</dc:creator>
<dc:creator>Fykse, Øystein</dc:creator>
<dc:contributor/>
<dc:subject>undervisning</dc:subject>
<dc:subject>sosiale rammer</dc:subject>
<dc:subject>autonomistøtte</dc:subject>
<dc:subject>trippelkvalifisering</dc:subject>
<dc:subject>markedsorientering</dc:subject>
<dc:subject>kompetanseutvikling</dc:subject>
<dc:subject>profesjonskompetanse</dc:subject>
<dc:subject>handlingsrefleksjon</dc:subject>
<dc:subject>didaktisk relasjonstenking</dc:subject>
<dc:subject>studentevalueringer</dc:subject>
<dc:subject>høyere utdanning</dc:subject>
<dc:subject>litteraturstudium</dc:subject>
<dc:subject>faktoranalyse</dc:subject>
<dc:subject>korrelasjonsanalyser</dc:subject>
<dc:subject>kunnskapsbasert praksis</dc:subject>
<dc:subject>informasjonskompetanse</dc:subject>
<dc:subject>yrkesutøvelse</dc:subject>
<dc:subject>bibliotek</dc:subject>
<dc:subject>studentaktive læringsmiljø</dc:subject>
<dc:subject>elektroniske informasjonskilder</dc:subject>
<dc:subject>teknologiutvikling</dc:subject>
<dc:subject>multimodal literacy</dc:subject>
<dc:description>Dette nummeret i skriftserien til Høgskolen i Bergen har sitt utspring i en FoU-gruppe på tvers av avdelinger i "FOU-prosjektet Læring ved Høgskolen i Bergen". Representanter fra de ulike miljøene ved høgskolens tre avdelinger ble utfordret til å belyse ulike tilnærminger til læring. FoU-gruppen på tvers av avdelinger søkte og ble tildelt midler til sitt prosjekt om læring i et kompetanseperspektiv.&#13;
&#13;
Vi valgte å ta utgangspunkt i kompetansebegrepet fordi begrepet rommer både et læringsperspektiv av teoretisk art og et perspektiv der praksis og erfaring er viktig. Personlige forutsetninger, kunnskaper, ferdigheter, holdninger, erfaringsbasert innsikt og bruk av andres kompetanse er viktige elementer i kompetansebegrepet. Utfordringer for alle profesjonsutdanningene er å bygge bro mellom en teoretisk opplæring og praksis i et profesjonsfelt. Innenfor kompetansebegrepet er det rom for en teoretisk dimensjon, en praktisk dimensjon og den innbyrdes relasjonen mellom disse dimensjonene.&#13;
&#13;
Flere av artiklene i denne utgaven er opptatt av praksistenking og sammenhengen mellom teori og praksis i utdanningen.</dc:description>
<dc:date>2014-02-19T09:51:26Z</dc:date>
<dc:date>2014-02-19T09:51:26Z</dc:date>
<dc:date>2007-04</dc:date>
<dc:type>Book</dc:type>
<dc:type>Report</dc:type>
<dc:identifier>9788277090924</dc:identifier>
<dc:identifier>http://hdl.handle.net/10049/404</dc:identifier>
<dc:language>nob</dc:language>
<dc:relation>Skriftserein nr 2 - 2007 - Forskningsrapport - artikkelsamling</dc:relation>
<dc:publisher>Høgskolen i Bergen</dc:publisher>
</oai_dc:dc>
</metadata>
        </record>
        <record>
            <header>
                <identifier>oai:archive.bora.wijiti.net:10049/405</identifier>
                <datestamp>2014-04-09T10:29:42Z</datestamp>
                <setSpec>com_10049_55</setSpec>
                <setSpec>col_10049_59</setSpec>
            </header>
            <metadata><oai_dc:dc xmlns:oai_dc="http://www.openarchives.org/OAI/2.0/oai_dc/" xmlns:doc="http://www.lyncode.com/xoai" xmlns:xsi="http://www.w3.org/2001/XMLSchema-instance" xmlns:dc="http://purl.org/dc/elements/1.1/" xsi:schemaLocation="http://www.openarchives.org/OAI/2.0/oai_dc/ http://www.openarchives.org/OAI/2.0/oai_dc.xsd">
<dc:title>Den tenkende soldat? Verneplikt i Norge som demokratisk institusjon.</dc:title>
<dc:creator>Skauge, Tom</dc:creator>
<dc:date>2014-04-07T14:25:35Z</dc:date>
<dc:date>2014-04-07T14:25:35Z</dc:date>
<dc:date>2002-03</dc:date>
<dc:type>Peer reviewed</dc:type>
<dc:type>PhD thesis</dc:type>
<dc:identifier>http://hdl.handle.net/10049/405</dc:identifier>
<dc:language>nob</dc:language>
<dc:publisher>The University of Bergen - Department of administration and organization theory</dc:publisher>
</oai_dc:dc>
</metadata>
        </record>
        <record>
            <header>
                <identifier>oai:archive.bora.wijiti.net:10049/406</identifier>
                <datestamp>2014-04-23T09:53:17Z</datestamp>
                <setSpec>com_10049_25</setSpec>
                <setSpec>col_10049_40</setSpec>
            </header>
            <metadata><oai_dc:dc xmlns:oai_dc="http://www.openarchives.org/OAI/2.0/oai_dc/" xmlns:doc="http://www.lyncode.com/xoai" xmlns:xsi="http://www.w3.org/2001/XMLSchema-instance" xmlns:dc="http://purl.org/dc/elements/1.1/" xsi:schemaLocation="http://www.openarchives.org/OAI/2.0/oai_dc/ http://www.openarchives.org/OAI/2.0/oai_dc.xsd">
<dc:title>Holdninger og atferd relatert til kunnskapsbasert praksis. En survey</dc:title>
<dc:creator>Stokke, Kjersti</dc:creator>
<dc:description>Mastergrad i Kunnskapsbasert praksis</dc:description>
<dc:description>Bakgrunn: Ved Radiumhospitalet integreres kunnskapsbasert praksis (KBP) gjennom prosjektet: ”Å implementere KBP i sykepleietjenesten ved Radiumhospitalet”. Halvveis i prosjektet var det behov for å kartlegge hvordan sykepleierne forholdt seg til KBP.&#13;
Hensikt: Hensikten med studien var å kartlegge selvrapporterte holdninger og atferd til KBP hos sykepleierne ved Radiumhospitalet og se om det var en sammenheng mellom holdninger og atferd knyttet til KBP.&#13;
Metode: Vi utførte en tverrsnittsundersøkelse blant 356 sykepleiere ved Radiumhospitalet. I tillegg til bakgrunnsvariablene alder, ansiennitet, kjønn, stilling, utdanning, kunnskap om KBP og deltagelse i KBP- arbeidsgrupper ble holdninger og atferd relatert til KBP registrert. Den norske versjonen av ”EBP Implementation Scale” og ”EBP Belief Scale” ble benyttet.&#13;
Resultater: I undersøkelsen deltok 185 sykepleiere (svarprosent 52 %). Resultatene viste at sykepleierne hadde en positiv holdning til KBP, men de rapporterte liten grad av KBP-aktiviteter. Det var en sammenheng mellom holdninger og atferd relatert til KBP, der holdninger relatert til kunnskaper var av størst betydning for implementering. Sykepleierne hadde høy tro på verdien av KBP, men liten tro på egen kunnskap til KBP. Troen på KBP var signifikant høyere i gruppen som hadde lært om KBP i forhold til gruppen som ikke hadde lært om KBP, og i gruppen som arbeidet i kunnskapsbaserte arbeidsgrupper enn de som ikke gjorde det.&#13;
Konklusjon: Studien indikerer at den enkeltes holdning til KBP er relatert til i hvilken grad de utfører KBP. Dette funnet er viktig siden kognitive holdninger er mottagelig til å endres ved intervensjoner. Å inneha kunnskaper og å arbeide i kunnskapsbaserte arbeidsgrupper ser også ut til å ha betydning. Å trene definerte personer i KBP, organisere og veilede arbeidsgrupper ser ut til å kunne være gunstig.</dc:description>
<dc:description>Background: At the Norwegian Radium Hospital evidence-based practice (EBP) has been integrated through the project: “Implementing EBP in the nursing service at the Norwegian Radium Hospital”. Halfway through the project schedule we wanted to identify how nurses related to EBP.&#13;
Aim: The purpose of this study was to investigate self-reported attitudes toward and implementation of EBP by nurses at the Norwegian Radium Hospital and see if there was correlation between beliefs and implementation to EBP.&#13;
Method: A cross-sectional study among 356 nurses at the Norwegian Radium Hospital was performed. Background variables such as age, seniority, gender, occupation, education, knowledge of EBP and participation in EBP-working groups and attitudes and behaviors related to EBP were registered. The Norwegian version of the "EBP Implementation Scale" and "EBP Belief Scale" was used.&#13;
Results: A total of 185 nurses participated in the survey (response rate 52 %). Results showed that the nurses had a positive attitude to EBP but they reported a low level of EBP – activities. A correlation between attitudes and behavior related to EPB showed that an attitude related to knowledge was of primary importance for the implementation. The nurses had a high belief in the value of EBP but little faith in their own knowledge of EBP. Belief in EBP was significantly higher in the group who had knowledge about EBP compared with the group who had no knowledge of EBP and in the group who worked in EBP- working groups compared with those who did not.&#13;
Conclusion: The study indicates that an individual’s belief about EBP is related to the extent to which they perform EBP. This finding is important as cognitive beliefs about and implementation of EBP can be strengthened through interventions. To possess knowledge and to work in EBP working groups also seems to matter. Training defined persons in EBP, organizing and guiding the work groups appear to be beneficial.</dc:description>
<dc:date>2014-04-23T09:53:16Z</dc:date>
<dc:date>2014-04-23T09:53:16Z</dc:date>
<dc:date>2011-05-16</dc:date>
<dc:type>Master's thesis</dc:type>
<dc:identifier>http://hdl.handle.net/10049/406</dc:identifier>
<dc:language>nob</dc:language>
<dc:publisher>Bergen University College</dc:publisher>
</oai_dc:dc>
</metadata>
        </record>
        <record>
            <header>
                <identifier>oai:archive.bora.wijiti.net:10049/407</identifier>
                <datestamp>2014-06-04T12:54:35Z</datestamp>
                <setSpec>com_10049_24</setSpec>
                <setSpec>col_10049_69</setSpec>
            </header>
            <metadata><oai_dc:dc xmlns:oai_dc="http://www.openarchives.org/OAI/2.0/oai_dc/" xmlns:doc="http://www.lyncode.com/xoai" xmlns:xsi="http://www.w3.org/2001/XMLSchema-instance" xmlns:dc="http://purl.org/dc/elements/1.1/" xsi:schemaLocation="http://www.openarchives.org/OAI/2.0/oai_dc/ http://www.openarchives.org/OAI/2.0/oai_dc.xsd">
<dc:title>Sunn mat i små kropper</dc:title>
<dc:creator>Landro, Margun</dc:creator>
<dc:description>Prosjektet har vore eit samarbeid mellom fagmiljøet og studentar ved Høgskolen&#13;
i Bergen, avdeling for lærarutdanning, seksjon Mat og helse og barnehagesektoren&#13;
i Fjell kommune. Artikkelen skildrar bakgrunnen for prosjektet og korleis&#13;
ein gjennom samarbeid med fagmiljøet ved Høgskolen og andre eksterne og&#13;
interne samarbeidspartar kan leggje til rette for endringsarbeid og sunn mat i&#13;
barnehagane.&#13;
Prosjektet kan også framstå som ein arbeidsmodell for varig samarbeid mellom&#13;
barnehageeigar og høgskule.</dc:description>
<dc:date>2014-06-04T12:45:10Z</dc:date>
<dc:date>2014-06-04T12:45:10Z</dc:date>
<dc:date>2011-04</dc:date>
<dc:type>Book chapter</dc:type>
<dc:identifier>978-82-77-09113-6</dc:identifier>
<dc:identifier>http://hdl.handle.net/10049/407</dc:identifier>
<dc:language>nno</dc:language>
<dc:relation>Skriftserien 2011 nr. 2</dc:relation>
<dc:publisher>Høgskolen i Bergen</dc:publisher>
</oai_dc:dc>
</metadata>
        </record>
        <record>
            <header>
                <identifier>oai:archive.bora.wijiti.net:10049/408</identifier>
                <datestamp>2014-06-06T10:39:40Z</datestamp>
                <setSpec>com_10049_24</setSpec>
                <setSpec>col_10049_69</setSpec>
            </header>
            <metadata><oai_dc:dc xmlns:oai_dc="http://www.openarchives.org/OAI/2.0/oai_dc/" xmlns:doc="http://www.lyncode.com/xoai" xmlns:xsi="http://www.w3.org/2001/XMLSchema-instance" xmlns:dc="http://purl.org/dc/elements/1.1/" xsi:schemaLocation="http://www.openarchives.org/OAI/2.0/oai_dc/ http://www.openarchives.org/OAI/2.0/oai_dc.xsd">
<dc:title>Hva gjør fokus på utvilkingshemming viktig?</dc:title>
<dc:creator>Pettersen, Marit</dc:creator>
<dc:description>Vernepleie som fag og profesjon ble opprettet på begynnelsen av 60-tallet fordi andre yrkesgrupper ikke ønsket å jobbe med utviklingshemmede. Men undersøkelser i de seneste år om vernepleiers yrkesvalg konkludere med at interessen for arbeidet med utvilkingshemmede taper terreng under utdanningens løp, i stedet øker studenters interesse for arbeidsfelt som psykiatri og rus.&#13;
Hvordan kan et engasjement for å arbeide med utvilkingshemmede vekkes og næres under studiet i dag som studenter flest ikke har forpraksis med arbeid med gruppen utviklingshemmede før studiet? Hvordan formidler de sitt engasjement, de som fremdeles velger det som tradisjonelt har vært vernepleierens samfunnsoppdrag, og hvilke utfordringer ligger i slik formidling? Denne artikkelen er et forsøk på å sette fokus på arbeidet med utviklingshemmede ved å formidle studenters, gryende eller tydelige, interesse for arbeid med utviklingshemmede og hvordan de muntlig og tekstlig formidler sitt etiske og politiske engasjement.</dc:description>
<dc:date>2014-06-06T10:37:54Z</dc:date>
<dc:date>2014-06-06T10:37:54Z</dc:date>
<dc:date>2009-03-20</dc:date>
<dc:type>Book chapter</dc:type>
<dc:identifier>9788277091037</dc:identifier>
<dc:identifier>http://hdl.handle.net/10049/408</dc:identifier>
<dc:language>nob</dc:language>
<dc:relation>Skriftserein nr. 1 2009, Forskningsrapport</dc:relation>
<dc:publisher>Høgskolen i Bergen</dc:publisher>
</oai_dc:dc>
</metadata>
        </record>
        <resumptionToken completeListSize="306" cursor="3"></resumptionToken>
    </ListRecords>
</OAI-PMH>
