<?xml version="1.0" encoding="UTF-8"?><?xml-stylesheet type="text/xsl" href="static/style.xsl"?><OAI-PMH xmlns="http://www.openarchives.org/OAI/2.0/" xmlns:xsi="http://www.w3.org/2001/XMLSchema-instance" xsi:schemaLocation="http://www.openarchives.org/OAI/2.0/ http://www.openarchives.org/OAI/2.0/OAI-PMH.xsd"><responseDate>2014-07-03T12:13:13Z</responseDate>
    <request verb="ListRecords" resumptionToken="MTozMDB8Mjp8Mzp8NDp8NTpvcmU=">http://archive.bora.wijiti.net/oai/request</request>
    <ListRecords>
        <record>
            <header>
                <identifier>oai:archive.bora.wijiti.net:10049/403</identifier>
                <datestamp>2014-03-07T09:41:14Z</datestamp>
                <setSpec>com_10049_24</setSpec>
                <setSpec>col_10049_69</setSpec>
            </header>
            <metadata><atom:entry xmlns:atom="http://www.w3.org/2005/Atom" xmlns:doc="http://www.lyncode.com/xoai" xmlns:dcterms="http://purl.org/dc/terms/" xmlns:oreatom="http://www.openarchives.org/ore/atom/" xmlns:ore="http://www.openarchives.org/ore/terms/" xmlns:xsi="http://www.w3.org/2001/XMLSchema-instance" xsi:schemaLocation="http://www.w3.org/2005/Atom http://www.kbcafe.com/rss/atom.xsd.xml">
<atom:id>http://hdl.handle.net/10049/403/ore.xml</atom:id>
<atom:link rel="alternate" href="http://hdl.handle.net/10049/403"/>
<atom:link rel="http://www.openarchives.org/ore/terms/describes" href="http://hdl.handle.net/10049/403/ore.xml"/>
<atom:link type="application/atom+xml" rel="self" href="http://hdl.handle.net/10049/403/ore.xml#atom"/>
<atom:published>2014-02-18T11:42:51Z</atom:published>
<atom:updated>2014-02-18T11:42:51Z</atom:updated>
<atom:source>
<atom:generator>Bergen Open Research Archive - HiB</atom:generator>
</atom:source>
<atom:title>Profesjonsutdanninger i Bergen</atom:title>
<atom:author>
<atom:name>Blom, Kari</atom:name>
</atom:author>
<atom:author>
<atom:name>Hamre, Britt</atom:name>
</atom:author>
<atom:author>
<atom:name>Ertresvaag, Egil</atom:name>
</atom:author>
<atom:author>
<atom:name>Larsen, Johanne Louise</atom:name>
</atom:author>
<atom:category label="Aggregation" term="http://www.openarchives.org/ore/terms/Aggregation" scheme="http://www.openarchives.org/ore/terms/"/>
<atom:category scheme="http://www.openarchives.org/ore/atom/modified" term="2014-02-18T11:42:51Z"/>
<atom:category label="DSpace Item" term="DSpaceItem" scheme="http://www.dspace.org/objectModel/"/>
<atom:link rel="http://www.openarchives.org/ore/terms/aggregates" href="http://archive.bora.wijiti.net/bitstream/10049%2F403/1/bitstream" title="blom.pdf" type="application/pdf" length="236531"/>
<atom:link rel="http://www.openarchives.org/ore/terms/aggregates" href="http://archive.bora.wijiti.net/bitstream/10049%2F403/2/bitstream" title="ertresvaag.pdf" type="application/pdf" length="227494"/>
<atom:link rel="http://www.openarchives.org/ore/terms/aggregates" href="http://archive.bora.wijiti.net/bitstream/10049%2F403/3/bitstream" title="hamre.pdf" type="application/pdf" length="342841"/>
<atom:link rel="http://www.openarchives.org/ore/terms/aggregates" href="http://archive.bora.wijiti.net/bitstream/10049%2F403/4/bitstream" title="larsen.pdf" type="application/pdf" length="378758"/>
<atom:link rel="http://www.openarchives.org/ore/terms/aggregates" href="http://archive.bora.wijiti.net/bitstream/10049%2F403/5/bitstream" title="evaag.pdf" type="application/pdf" length="334913"/>
<oreatom:triples>
<rdf:Description xmlns:rdf="http://www.w3.org/1999/02/22-rdf-syntax-ns#" rdf:about="http://hdl.handle.net/10049/403/ore.xml#atom">
<rdf:type rdf:resource="http://www.dspace.org/objectModel/DSpaceItem"/>
<dcterms:modified>2014-02-18T11:42:51Z</dcterms:modified>
</rdf:Description>
<rdf:Description xmlns:rdf="http://www.w3.org/1999/02/22-rdf-syntax-ns#" rdf:about="http://archive.bora.wijiti.net/bitstream/10049%2F403/1/bitstream">
<rdf:type rdf:resource="http://www.dspace.org/objectModel/DSpaceBitstream"/>
<dcterms:description>ORIGINAL</dcterms:description>
</rdf:Description>
<rdf:Description xmlns:rdf="http://www.w3.org/1999/02/22-rdf-syntax-ns#" rdf:about="http://archive.bora.wijiti.net/bitstream/10049%2F403/2/bitstream">
<rdf:type rdf:resource="http://www.dspace.org/objectModel/DSpaceBitstream"/>
<dcterms:description>ORIGINAL</dcterms:description>
</rdf:Description>
<rdf:Description xmlns:rdf="http://www.w3.org/1999/02/22-rdf-syntax-ns#" rdf:about="http://archive.bora.wijiti.net/bitstream/10049%2F403/3/bitstream">
<rdf:type rdf:resource="http://www.dspace.org/objectModel/DSpaceBitstream"/>
<dcterms:description>ORIGINAL</dcterms:description>
</rdf:Description>
<rdf:Description xmlns:rdf="http://www.w3.org/1999/02/22-rdf-syntax-ns#" rdf:about="http://archive.bora.wijiti.net/bitstream/10049%2F403/4/bitstream">
<rdf:type rdf:resource="http://www.dspace.org/objectModel/DSpaceBitstream"/>
<dcterms:description>ORIGINAL</dcterms:description>
</rdf:Description>
<rdf:Description xmlns:rdf="http://www.w3.org/1999/02/22-rdf-syntax-ns#" rdf:about="http://archive.bora.wijiti.net/bitstream/10049%2F403/5/bitstream">
<rdf:type rdf:resource="http://www.dspace.org/objectModel/DSpaceBitstream"/>
<dcterms:description>ORIGINAL</dcterms:description>
</rdf:Description>
<rdf:Description xmlns:rdf="http://www.w3.org/1999/02/22-rdf-syntax-ns#" rdf:about="http://archive.bora.wijiti.net/bitstream/10049%2F403/6/bitstream">
<rdf:type rdf:resource="http://www.dspace.org/objectModel/DSpaceBitstream"/>
<dcterms:description>LICENSE</dcterms:description>
</rdf:Description>
</oreatom:triples>
</atom:entry>
</metadata>
        </record>
        <record>
            <header>
                <identifier>oai:archive.bora.wijiti.net:10049/404</identifier>
                <datestamp>2014-03-06T08:35:50Z</datestamp>
                <setSpec>com_10049_24</setSpec>
                <setSpec>col_10049_69</setSpec>
            </header>
            <metadata><atom:entry xmlns:atom="http://www.w3.org/2005/Atom" xmlns:doc="http://www.lyncode.com/xoai" xmlns:dcterms="http://purl.org/dc/terms/" xmlns:oreatom="http://www.openarchives.org/ore/atom/" xmlns:ore="http://www.openarchives.org/ore/terms/" xmlns:xsi="http://www.w3.org/2001/XMLSchema-instance" xsi:schemaLocation="http://www.w3.org/2005/Atom http://www.kbcafe.com/rss/atom.xsd.xml">
<atom:id>http://hdl.handle.net/10049/404/ore.xml</atom:id>
<atom:link rel="alternate" href="http://hdl.handle.net/10049/404"/>
<atom:link rel="http://www.openarchives.org/ore/terms/describes" href="http://hdl.handle.net/10049/404/ore.xml"/>
<atom:link type="application/atom+xml" rel="self" href="http://hdl.handle.net/10049/404/ore.xml#atom"/>
<atom:published>2014-02-19T09:51:26Z</atom:published>
<atom:updated>2014-02-19T09:51:26Z</atom:updated>
<atom:source>
<atom:generator>Bergen Open Research Archive - HiB</atom:generator>
</atom:source>
<atom:title>Læring for profesjonskompetanse</atom:title>
<atom:author>
<atom:name>Wilhelmsen, Britt Unni</atom:name>
</atom:author>
<atom:author>
<atom:name>Hole, Grete Oline</atom:name>
</atom:author>
<atom:author>
<atom:name>Hove, Synnøve</atom:name>
</atom:author>
<atom:author>
<atom:name>Jensen, Per Ivar</atom:name>
</atom:author>
<atom:author>
<atom:name>Aarstad, Jarle</atom:name>
</atom:author>
<atom:author>
<atom:name>Haugen, Gry Karin</atom:name>
</atom:author>
<atom:author>
<atom:name>Olsen, Nina Rydland</atom:name>
</atom:author>
<atom:author>
<atom:name>Sætre, Tove Pemmer</atom:name>
</atom:author>
<atom:author>
<atom:name>Waage, Jan Fredrik</atom:name>
</atom:author>
<atom:author>
<atom:name>Bland, Hanna</atom:name>
</atom:author>
<atom:author>
<atom:name>Wahlquist, Ole Henrik</atom:name>
</atom:author>
<atom:author>
<atom:name>Fykse, Øystein</atom:name>
</atom:author>
<atom:category label="Aggregation" term="http://www.openarchives.org/ore/terms/Aggregation" scheme="http://www.openarchives.org/ore/terms/"/>
<atom:category scheme="http://www.openarchives.org/ore/atom/modified" term="2014-02-19T09:51:26Z"/>
<atom:category label="DSpace Item" term="DSpaceItem" scheme="http://www.dspace.org/objectModel/"/>
<atom:link rel="http://www.openarchives.org/ore/terms/aggregates" href="http://archive.bora.wijiti.net/bitstream/10049%2F404/1/bitstream" title="buw.pdf" type="application/pdf" length="118475"/>
<atom:link rel="http://www.openarchives.org/ore/terms/aggregates" href="http://archive.bora.wijiti.net/bitstream/10049%2F404/2/bitstream" title="hove.pdf" type="application/pdf" length="126879"/>
<atom:link rel="http://www.openarchives.org/ore/terms/aggregates" href="http://archive.bora.wijiti.net/bitstream/10049%2F404/3/bitstream" title="jensen.pdf" type="application/pdf" length="112017"/>
<atom:link rel="http://www.openarchives.org/ore/terms/aggregates" href="http://archive.bora.wijiti.net/bitstream/10049%2F404/4/bitstream" title="aarstad.pdf" type="application/pdf" length="122697"/>
<atom:link rel="http://www.openarchives.org/ore/terms/aggregates" href="http://archive.bora.wijiti.net/bitstream/10049%2F404/5/bitstream" title="haugen.pdf" type="application/pdf" length="360988"/>
<atom:link rel="http://www.openarchives.org/ore/terms/aggregates" href="http://archive.bora.wijiti.net/bitstream/10049%2F404/6/bitstream" title="nro.pdf" type="application/pdf" length="150772"/>
<atom:link rel="http://www.openarchives.org/ore/terms/aggregates" href="http://archive.bora.wijiti.net/bitstream/10049%2F404/7/bitstream" title="tove.pdf" type="application/pdf" length="104628"/>
<atom:link rel="http://www.openarchives.org/ore/terms/aggregates" href="http://archive.bora.wijiti.net/bitstream/10049%2F404/8/bitstream" title="waage.pdf" type="application/pdf" length="133706"/>
<atom:link rel="http://www.openarchives.org/ore/terms/aggregates" href="http://archive.bora.wijiti.net/bitstream/10049%2F404/9/bitstream" title="student.pdf" type="application/pdf" length="52526"/>
<oreatom:triples>
<rdf:Description xmlns:rdf="http://www.w3.org/1999/02/22-rdf-syntax-ns#" rdf:about="http://hdl.handle.net/10049/404/ore.xml#atom">
<rdf:type rdf:resource="http://www.dspace.org/objectModel/DSpaceItem"/>
<dcterms:modified>2014-02-19T09:51:26Z</dcterms:modified>
</rdf:Description>
<rdf:Description xmlns:rdf="http://www.w3.org/1999/02/22-rdf-syntax-ns#" rdf:about="http://archive.bora.wijiti.net/bitstream/10049%2F404/1/bitstream">
<rdf:type rdf:resource="http://www.dspace.org/objectModel/DSpaceBitstream"/>
<dcterms:description>ORIGINAL</dcterms:description>
</rdf:Description>
<rdf:Description xmlns:rdf="http://www.w3.org/1999/02/22-rdf-syntax-ns#" rdf:about="http://archive.bora.wijiti.net/bitstream/10049%2F404/2/bitstream">
<rdf:type rdf:resource="http://www.dspace.org/objectModel/DSpaceBitstream"/>
<dcterms:description>ORIGINAL</dcterms:description>
</rdf:Description>
<rdf:Description xmlns:rdf="http://www.w3.org/1999/02/22-rdf-syntax-ns#" rdf:about="http://archive.bora.wijiti.net/bitstream/10049%2F404/3/bitstream">
<rdf:type rdf:resource="http://www.dspace.org/objectModel/DSpaceBitstream"/>
<dcterms:description>ORIGINAL</dcterms:description>
</rdf:Description>
<rdf:Description xmlns:rdf="http://www.w3.org/1999/02/22-rdf-syntax-ns#" rdf:about="http://archive.bora.wijiti.net/bitstream/10049%2F404/4/bitstream">
<rdf:type rdf:resource="http://www.dspace.org/objectModel/DSpaceBitstream"/>
<dcterms:description>ORIGINAL</dcterms:description>
</rdf:Description>
<rdf:Description xmlns:rdf="http://www.w3.org/1999/02/22-rdf-syntax-ns#" rdf:about="http://archive.bora.wijiti.net/bitstream/10049%2F404/5/bitstream">
<rdf:type rdf:resource="http://www.dspace.org/objectModel/DSpaceBitstream"/>
<dcterms:description>ORIGINAL</dcterms:description>
</rdf:Description>
<rdf:Description xmlns:rdf="http://www.w3.org/1999/02/22-rdf-syntax-ns#" rdf:about="http://archive.bora.wijiti.net/bitstream/10049%2F404/6/bitstream">
<rdf:type rdf:resource="http://www.dspace.org/objectModel/DSpaceBitstream"/>
<dcterms:description>ORIGINAL</dcterms:description>
</rdf:Description>
<rdf:Description xmlns:rdf="http://www.w3.org/1999/02/22-rdf-syntax-ns#" rdf:about="http://archive.bora.wijiti.net/bitstream/10049%2F404/7/bitstream">
<rdf:type rdf:resource="http://www.dspace.org/objectModel/DSpaceBitstream"/>
<dcterms:description>ORIGINAL</dcterms:description>
</rdf:Description>
<rdf:Description xmlns:rdf="http://www.w3.org/1999/02/22-rdf-syntax-ns#" rdf:about="http://archive.bora.wijiti.net/bitstream/10049%2F404/8/bitstream">
<rdf:type rdf:resource="http://www.dspace.org/objectModel/DSpaceBitstream"/>
<dcterms:description>ORIGINAL</dcterms:description>
</rdf:Description>
<rdf:Description xmlns:rdf="http://www.w3.org/1999/02/22-rdf-syntax-ns#" rdf:about="http://archive.bora.wijiti.net/bitstream/10049%2F404/9/bitstream">
<rdf:type rdf:resource="http://www.dspace.org/objectModel/DSpaceBitstream"/>
<dcterms:description>ORIGINAL</dcterms:description>
</rdf:Description>
<rdf:Description xmlns:rdf="http://www.w3.org/1999/02/22-rdf-syntax-ns#" rdf:about="http://archive.bora.wijiti.net/bitstream/10049%2F404/10/bitstream">
<rdf:type rdf:resource="http://www.dspace.org/objectModel/DSpaceBitstream"/>
<dcterms:description>LICENSE</dcterms:description>
</rdf:Description>
</oreatom:triples>
</atom:entry>
</metadata>
        </record>
        <record>
            <header>
                <identifier>oai:archive.bora.wijiti.net:10049/405</identifier>
                <datestamp>2014-04-09T10:29:42Z</datestamp>
                <setSpec>com_10049_55</setSpec>
                <setSpec>col_10049_59</setSpec>
            </header>
            <metadata><atom:entry xmlns:atom="http://www.w3.org/2005/Atom" xmlns:doc="http://www.lyncode.com/xoai" xmlns:dcterms="http://purl.org/dc/terms/" xmlns:oreatom="http://www.openarchives.org/ore/atom/" xmlns:ore="http://www.openarchives.org/ore/terms/" xmlns:xsi="http://www.w3.org/2001/XMLSchema-instance" xsi:schemaLocation="http://www.w3.org/2005/Atom http://www.kbcafe.com/rss/atom.xsd.xml">
<atom:id>http://hdl.handle.net/10049/405/ore.xml</atom:id>
<atom:link rel="alternate" href="http://hdl.handle.net/10049/405"/>
<atom:link rel="http://www.openarchives.org/ore/terms/describes" href="http://hdl.handle.net/10049/405/ore.xml"/>
<atom:link type="application/atom+xml" rel="self" href="http://hdl.handle.net/10049/405/ore.xml#atom"/>
<atom:published>2014-04-07T14:25:35Z</atom:published>
<atom:updated>2014-04-07T14:25:35Z</atom:updated>
<atom:source>
<atom:generator>Bergen Open Research Archive - HiB</atom:generator>
</atom:source>
<atom:title>Den tenkende soldat? Verneplikt i Norge som demokratisk institusjon.</atom:title>
<atom:author>
<atom:name>Skauge, Tom</atom:name>
</atom:author>
<atom:category label="Aggregation" term="http://www.openarchives.org/ore/terms/Aggregation" scheme="http://www.openarchives.org/ore/terms/"/>
<atom:category scheme="http://www.openarchives.org/ore/atom/modified" term="2014-04-07T14:25:35Z"/>
<atom:category label="DSpace Item" term="DSpaceItem" scheme="http://www.dspace.org/objectModel/"/>
<atom:link rel="http://www.openarchives.org/ore/terms/aggregates" href="http://archive.bora.wijiti.net/bitstream/10049%2F405/1/bitstream" title="Ph.d-thesis_Skauge.pdf" type="application/pdf" length="28780023"/>
<oreatom:triples>
<rdf:Description xmlns:rdf="http://www.w3.org/1999/02/22-rdf-syntax-ns#" rdf:about="http://hdl.handle.net/10049/405/ore.xml#atom">
<rdf:type rdf:resource="http://www.dspace.org/objectModel/DSpaceItem"/>
<dcterms:modified>2014-04-07T14:25:35Z</dcterms:modified>
</rdf:Description>
<rdf:Description xmlns:rdf="http://www.w3.org/1999/02/22-rdf-syntax-ns#" rdf:about="http://archive.bora.wijiti.net/bitstream/10049%2F405/1/bitstream">
<rdf:type rdf:resource="http://www.dspace.org/objectModel/DSpaceBitstream"/>
<dcterms:description>ORIGINAL</dcterms:description>
</rdf:Description>
<rdf:Description xmlns:rdf="http://www.w3.org/1999/02/22-rdf-syntax-ns#" rdf:about="http://archive.bora.wijiti.net/bitstream/10049%2F405/2/bitstream">
<rdf:type rdf:resource="http://www.dspace.org/objectModel/DSpaceBitstream"/>
<dcterms:description>LICENSE</dcterms:description>
</rdf:Description>
</oreatom:triples>
</atom:entry>
</metadata>
        </record>
        <record>
            <header>
                <identifier>oai:archive.bora.wijiti.net:10049/406</identifier>
                <datestamp>2014-04-23T09:53:17Z</datestamp>
                <setSpec>com_10049_25</setSpec>
                <setSpec>col_10049_40</setSpec>
            </header>
            <metadata><atom:entry xmlns:atom="http://www.w3.org/2005/Atom" xmlns:doc="http://www.lyncode.com/xoai" xmlns:dcterms="http://purl.org/dc/terms/" xmlns:oreatom="http://www.openarchives.org/ore/atom/" xmlns:ore="http://www.openarchives.org/ore/terms/" xmlns:xsi="http://www.w3.org/2001/XMLSchema-instance" xsi:schemaLocation="http://www.w3.org/2005/Atom http://www.kbcafe.com/rss/atom.xsd.xml">
<atom:id>http://hdl.handle.net/10049/406/ore.xml</atom:id>
<atom:link rel="alternate" href="http://hdl.handle.net/10049/406"/>
<atom:link rel="http://www.openarchives.org/ore/terms/describes" href="http://hdl.handle.net/10049/406/ore.xml"/>
<atom:link type="application/atom+xml" rel="self" href="http://hdl.handle.net/10049/406/ore.xml#atom"/>
<atom:published>2014-04-23T09:53:16Z</atom:published>
<atom:updated>2014-04-23T09:53:16Z</atom:updated>
<atom:source>
<atom:generator>Bergen Open Research Archive - HiB</atom:generator>
</atom:source>
<atom:title>Holdninger og atferd relatert til kunnskapsbasert praksis. En survey</atom:title>
<atom:author>
<atom:name>Stokke, Kjersti</atom:name>
</atom:author>
<atom:category label="Aggregation" term="http://www.openarchives.org/ore/terms/Aggregation" scheme="http://www.openarchives.org/ore/terms/"/>
<atom:category scheme="http://www.openarchives.org/ore/atom/modified" term="2014-04-23T09:53:16Z"/>
<atom:category label="DSpace Item" term="DSpaceItem" scheme="http://www.dspace.org/objectModel/"/>
<atom:link rel="http://www.openarchives.org/ore/terms/aggregates" href="http://archive.bora.wijiti.net/bitstream/10049%2F406/1/bitstream" title="Masterthesis_Stokke.pdf" type="application/pdf" length="2242322"/>
<oreatom:triples>
<rdf:Description xmlns:rdf="http://www.w3.org/1999/02/22-rdf-syntax-ns#" rdf:about="http://hdl.handle.net/10049/406/ore.xml#atom">
<rdf:type rdf:resource="http://www.dspace.org/objectModel/DSpaceItem"/>
<dcterms:modified>2014-04-23T09:53:16Z</dcterms:modified>
</rdf:Description>
<rdf:Description xmlns:rdf="http://www.w3.org/1999/02/22-rdf-syntax-ns#" rdf:about="http://archive.bora.wijiti.net/bitstream/10049%2F406/1/bitstream">
<rdf:type rdf:resource="http://www.dspace.org/objectModel/DSpaceBitstream"/>
<dcterms:description>ORIGINAL</dcterms:description>
</rdf:Description>
<rdf:Description xmlns:rdf="http://www.w3.org/1999/02/22-rdf-syntax-ns#" rdf:about="http://archive.bora.wijiti.net/bitstream/10049%2F406/2/bitstream">
<rdf:type rdf:resource="http://www.dspace.org/objectModel/DSpaceBitstream"/>
<dcterms:description>LICENSE</dcterms:description>
</rdf:Description>
</oreatom:triples>
</atom:entry>
</metadata>
        </record>
        <record>
            <header>
                <identifier>oai:archive.bora.wijiti.net:10049/407</identifier>
                <datestamp>2014-06-04T12:54:35Z</datestamp>
                <setSpec>com_10049_24</setSpec>
                <setSpec>col_10049_69</setSpec>
            </header>
            <metadata><atom:entry xmlns:atom="http://www.w3.org/2005/Atom" xmlns:doc="http://www.lyncode.com/xoai" xmlns:dcterms="http://purl.org/dc/terms/" xmlns:oreatom="http://www.openarchives.org/ore/atom/" xmlns:ore="http://www.openarchives.org/ore/terms/" xmlns:xsi="http://www.w3.org/2001/XMLSchema-instance" xsi:schemaLocation="http://www.w3.org/2005/Atom http://www.kbcafe.com/rss/atom.xsd.xml">
<atom:id>http://hdl.handle.net/10049/407/ore.xml</atom:id>
<atom:link rel="alternate" href="http://hdl.handle.net/10049/407"/>
<atom:link rel="http://www.openarchives.org/ore/terms/describes" href="http://hdl.handle.net/10049/407/ore.xml"/>
<atom:link type="application/atom+xml" rel="self" href="http://hdl.handle.net/10049/407/ore.xml#atom"/>
<atom:published>2014-06-04T12:45:10Z</atom:published>
<atom:updated>2014-06-04T12:45:10Z</atom:updated>
<atom:source>
<atom:generator>Bergen Open Research Archive - HiB</atom:generator>
</atom:source>
<atom:title>Sunn mat i små kropper</atom:title>
<atom:author>
<atom:name>Landro, Margun</atom:name>
</atom:author>
<atom:category label="Aggregation" term="http://www.openarchives.org/ore/terms/Aggregation" scheme="http://www.openarchives.org/ore/terms/"/>
<atom:category scheme="http://www.openarchives.org/ore/atom/modified" term="2014-06-04T12:45:10Z"/>
<atom:category label="DSpace Item" term="DSpaceItem" scheme="http://www.dspace.org/objectModel/"/>
<atom:link rel="http://www.openarchives.org/ore/terms/aggregates" href="http://archive.bora.wijiti.net/bitstream/10049%2F407/1/bitstream" title="Sunn mat_skriftserien_2011_2.pdf" type="application/pdf" length="5029828"/>
<oreatom:triples>
<rdf:Description xmlns:rdf="http://www.w3.org/1999/02/22-rdf-syntax-ns#" rdf:about="http://hdl.handle.net/10049/407/ore.xml#atom">
<rdf:type rdf:resource="http://www.dspace.org/objectModel/DSpaceItem"/>
<dcterms:modified>2014-06-04T12:45:10Z</dcterms:modified>
</rdf:Description>
<rdf:Description xmlns:rdf="http://www.w3.org/1999/02/22-rdf-syntax-ns#" rdf:about="http://archive.bora.wijiti.net/bitstream/10049%2F407/1/bitstream">
<rdf:type rdf:resource="http://www.dspace.org/objectModel/DSpaceBitstream"/>
<dcterms:description>ORIGINAL</dcterms:description>
</rdf:Description>
<rdf:Description xmlns:rdf="http://www.w3.org/1999/02/22-rdf-syntax-ns#" rdf:about="http://archive.bora.wijiti.net/bitstream/10049%2F407/3/bitstream">
<rdf:type rdf:resource="http://www.dspace.org/objectModel/DSpaceBitstream"/>
<dcterms:description>CC-LICENSE</dcterms:description>
</rdf:Description>
</oreatom:triples>
</atom:entry>
</metadata>
        </record>
        <record>
            <header>
                <identifier>oai:archive.bora.wijiti.net:10049/408</identifier>
                <datestamp>2014-06-06T10:39:40Z</datestamp>
                <setSpec>com_10049_24</setSpec>
                <setSpec>col_10049_69</setSpec>
            </header>
            <metadata><atom:entry xmlns:atom="http://www.w3.org/2005/Atom" xmlns:doc="http://www.lyncode.com/xoai" xmlns:dcterms="http://purl.org/dc/terms/" xmlns:oreatom="http://www.openarchives.org/ore/atom/" xmlns:ore="http://www.openarchives.org/ore/terms/" xmlns:xsi="http://www.w3.org/2001/XMLSchema-instance" xsi:schemaLocation="http://www.w3.org/2005/Atom http://www.kbcafe.com/rss/atom.xsd.xml">
<atom:id>http://hdl.handle.net/10049/408/ore.xml</atom:id>
<atom:link rel="alternate" href="http://hdl.handle.net/10049/408"/>
<atom:link rel="http://www.openarchives.org/ore/terms/describes" href="http://hdl.handle.net/10049/408/ore.xml"/>
<atom:link type="application/atom+xml" rel="self" href="http://hdl.handle.net/10049/408/ore.xml#atom"/>
<atom:published>2014-06-06T10:37:54Z</atom:published>
<atom:updated>2014-06-06T10:37:54Z</atom:updated>
<atom:source>
<atom:generator>Bergen Open Research Archive - HiB</atom:generator>
</atom:source>
<atom:title>Hva gjør fokus på utvilkingshemming viktig?</atom:title>
<atom:author>
<atom:name>Pettersen, Marit</atom:name>
</atom:author>
<atom:category label="Aggregation" term="http://www.openarchives.org/ore/terms/Aggregation" scheme="http://www.openarchives.org/ore/terms/"/>
<atom:category scheme="http://www.openarchives.org/ore/atom/modified" term="2014-06-06T10:37:54Z"/>
<atom:category label="DSpace Item" term="DSpaceItem" scheme="http://www.dspace.org/objectModel/"/>
<atom:link rel="http://www.openarchives.org/ore/terms/aggregates" href="http://archive.bora.wijiti.net/bitstream/10049%2F408/1/bitstream" title="Marit Pettersen_skrifterien_2009_1.pdf" type="application/pdf" length="3849817"/>
<oreatom:triples>
<rdf:Description xmlns:rdf="http://www.w3.org/1999/02/22-rdf-syntax-ns#" rdf:about="http://hdl.handle.net/10049/408/ore.xml#atom">
<rdf:type rdf:resource="http://www.dspace.org/objectModel/DSpaceItem"/>
<dcterms:modified>2014-06-06T10:37:54Z</dcterms:modified>
</rdf:Description>
<rdf:Description xmlns:rdf="http://www.w3.org/1999/02/22-rdf-syntax-ns#" rdf:about="http://archive.bora.wijiti.net/bitstream/10049%2F408/1/bitstream">
<rdf:type rdf:resource="http://www.dspace.org/objectModel/DSpaceBitstream"/>
<dcterms:description>ORIGINAL</dcterms:description>
</rdf:Description>
<rdf:Description xmlns:rdf="http://www.w3.org/1999/02/22-rdf-syntax-ns#" rdf:about="http://archive.bora.wijiti.net/bitstream/10049%2F408/3/bitstream">
<rdf:type rdf:resource="http://www.dspace.org/objectModel/DSpaceBitstream"/>
<dcterms:description>CC-LICENSE</dcterms:description>
</rdf:Description>
</oreatom:triples>
</atom:entry>
</metadata>
        </record>
        <resumptionToken completeListSize="306" cursor="3"></resumptionToken>
    </ListRecords>
</OAI-PMH>
